Labs/Lab4/Lab4_ysz/Lab4_ysz.sim/sim_1/behav/xsim/tb_Top.vcd
$date
   Sun Nov  6 07:05:09 2022
$end
$version
  2020.1
$end
$timescale
  1ps
$end
$scope module tb_Top $end
$var reg 1 ! clk $end
$var parameter 32 " CLK_PERIOD [31:0] $end
$scope module uut $end
$var wire 1 # clk $end
$var wire 1 $ MEM_PCSrc $end
$var wire 32 % MEM_PC_jump [31:0] $end
$var wire 32 & IF_PC_4 [31:0] $end
$var wire 32 ' IF_PC_cur [31:0] $end
$var wire 32 ( IF_instruction [31:0] $end
$var wire 32 ) IF_PC_next [31:0] $end
$var wire 32 * ID_PC_4 [31:0] $end
$var wire 32 + ID_PC_cur [31:0] $end
$var wire 32 , ID_instruction [31:0] $end
$var wire 1 - ID_Branch $end
$var wire 1 . ID_MemRead $end
$var wire 1 / ID_MemtoReg $end
$var wire 1 0 ID_MemWrite $end
$var wire 1 1 ID_ALUSrc $end
$var wire 1 2 ID_RegWrite $end
$var wire 2 3 ID_ALUop [1:0] $end
$var wire 1 4 ID_IsJalr $end
$var wire 1 5 ID_JumpSrc $end
$var wire 1 6 ID_AsByte $end
$var wire 1 7 ID_AsUnsigned $end
$var wire 5 8 WB_W_reg [4:0] $end
$var wire 32 9 WB_W_data [31:0] $end
$var wire 1 : WB_RegWrite $end
$var wire 32 ; ID_R_data1 [31:0] $end
$var wire 32 < ID_R_data2 [31:0] $end
$var wire 32 = ID_imme [31:0] $end
$var wire 1 > EX_Branch $end
$var wire 1 ? EX_MemRead $end
$var wire 1 @ EX_MemtoReg $end
$var wire 1 A EX_MemWrite $end
$var wire 1 B EX_ALUSrc $end
$var wire 1 C EX_RegWrite $end
$var wire 2 D EX_ALUop [1:0] $end
$var wire 1 E EX_IsJalr $end
$var wire 1 F EX_JumpSrc $end
$var wire 1 G EX_AsByte $end
$var wire 1 H EX_AsUnsigned $end
$var wire 32 I EX_PC_4 [31:0] $end
$var wire 32 J EX_PC_cur [31:0] $end
$var wire 32 K EX_R_data1 [31:0] $end
$var wire 32 L EX_R_data2 [31:0] $end
$var wire 32 M EX_imme [31:0] $end
$var wire 1 N EX_instruction_30 $end
$var wire 3 O EX_instruction_func3 [2:0] $end
$var wire 7 P EX_instruction_funct7 [6:0] $end
$var wire 5 Q EX_W_reg [4:0] $end
$var wire 32 R EX_PC_Imme [31:0] $end
$var wire 4 S EX_ALU_control [3:0] $end
$var wire 32 T EX_R_data2_or_imme [31:0] $end
$var wire 1 U EX_Zero $end
$var wire 32 V EX_ALU_results [31:0] $end
$var wire 1 W MEM_Branch $end
$var wire 1 X MEM_MemRead $end
$var wire 1 Y MEM_MemtoReg $end
$var wire 1 Z MEM_MemWrite $end
$var wire 1 [ MEM_RegWrite $end
$var wire 1 \ MEM_IsJalr $end
$var wire 1 ] MEM_JumpSrc $end
$var wire 1 ^ MEM_AsByte $end
$var wire 1 _ MEM_AsUnsigned $end
$var wire 32 ` MEM_PC_4 [31:0] $end
$var wire 32 a MEM_PC_cur [31:0] $end
$var wire 32 b MEM_PC_Imme [31:0] $end
$var wire 1 c MEM_Zero $end
$var wire 32 d MEM_ALU_results [31:0] $end
$var wire 32 e MEM_R_data2 [31:0] $end
$var wire 5 f MEM_W_reg [4:0] $end
$var wire 32 g MEM_Data_mem_data [31:0] $end
$var wire 1 h WB_JumpSrc $end
$var wire 32 i WB_PC_4 [31:0] $end
$var wire 32 j WB_Data_mem_data [31:0] $end
$var wire 32 k WB_ALU_results [31:0] $end
$var wire 32 l Temp_Data1 [31:0] $end
$var wire 1 m WB_MemtoReg $end
$scope module IF_PC_MUX $end
$var wire 32 % in1 [31:0] $end
$var wire 32 & in0 [31:0] $end
$var wire 1 $ select $end
$var wire 32 ) result [31:0] $end
$upscope $end
$scope module PC $end
$var wire 1 # clk $end
$var wire 32 ) PC_next [31:0] $end
$var reg 32 n PC_cur [31:0] $end
$upscope $end
$scope module instr_mem $end
$var wire 32 ' PC [31:0] $end
$var wire 32 ( instruction [31:0] $end
$upscope $end
$scope module IF_ID_Reg $end
$var wire 1 # clk $end
$var wire 32 & IF_PC_4 [31:0] $end
$var wire 32 ' IF_PC_cur [31:0] $end
$var wire 32 ( IF_instruction [31:0] $end
$var reg 32 o ID_PC_4 [31:0] $end
$var reg 32 p ID_PC_cur [31:0] $end
$var reg 32 q ID_instruction [31:0] $end
$upscope $end
$scope module Control_unit $end
$var wire 7 r instr_6_0 [6:0] $end
$var reg 1 s Branch $end
$var reg 1 t MemRead $end
$var reg 1 u MemtoReg $end
$var reg 2 v ALUop [1:0] $end
$var reg 1 w MemWrite $end
$var reg 1 x ALUSrc $end
$var reg 1 y RegWrite $end
$upscope $end
$scope module Control_unit2 $end
$var wire 7 r instr_6_0 [6:0] $end
$var wire 1 z i_30 $end
$var wire 3 { funct3 [2:0] $end
$var reg 1 | IsJalr $end
$var reg 1 } JumpSrc $end
$var reg 1 ~ AsByte $end
$var reg 1 !! AsUnsigned $end
$upscope $end
$scope module Reg_file $end
$var wire 1 # clk $end
$var wire 5 "! R_reg1 [4:0] $end
$var wire 5 #! R_reg2 [4:0] $end
$var wire 5 8 W_reg [4:0] $end
$var wire 32 9 W_data [31:0] $end
$var wire 1 : Reg_write $end
$var wire 32 ; R_data1 [31:0] $end
$var wire 32 < R_data2 [31:0] $end
$var integer 32 $! i $end
$upscope $end
$scope module Immediate_generator $end
$var wire 32 , instruction [31:0] $end
$var reg 32 %! immediate [31:0] $end
$upscope $end
$scope module ID_EX_Reg $end
$var wire 1 # clk $end
$var wire 1 - ID_Branch $end
$var wire 1 . ID_MemRead $end
$var wire 1 / ID_MemtoReg $end
$var wire 1 0 ID_MemWrite $end
$var wire 1 1 ID_ALUSrc $end
$var wire 1 2 ID_RegWrite $end
$var wire 2 3 ID_ALUop [1:0] $end
$var reg 1 &! EX_Branch $end
$var reg 1 '! EX_MemRead $end
$var reg 1 (! EX_MemtoReg $end
$var reg 1 )! EX_MemWrite $end
$var reg 1 *! EX_ALUSrc $end
$var reg 1 +! EX_RegWrite $end
$var reg 2 ,! EX_ALUop [1:0] $end
$var wire 1 4 ID_IsJalr $end
$var wire 1 5 ID_JumpSrc $end
$var wire 1 6 ID_AsByte $end
$var wire 1 7 ID_AsUnsigned $end
$var reg 1 -! EX_IsJalr $end
$var reg 1 .! EX_JumpSrc $end
$var reg 1 /! EX_AsByte $end
$var reg 1 0! EX_AsUnsigned $end
$var wire 32 * ID_PC_4 [31:0] $end
$var wire 32 + ID_PC_cur [31:0] $end
$var reg 32 1! EX_PC_4 [31:0] $end
$var reg 32 2! EX_PC_cur [31:0] $end
$var wire 32 ; ID_R_data1 [31:0] $end
$var wire 32 < ID_R_data2 [31:0] $end
$var reg 32 3! EX_R_data1 [31:0] $end
$var reg 32 4! EX_R_data2 [31:0] $end
$var wire 32 = ID_imme [31:0] $end
$var reg 32 5! EX_imme [31:0] $end
$var wire 1 z ID_instruction_30 $end
$var wire 3 { ID_instruction_func3 [2:0] $end
$var wire 7 6! ID_instruction_funct7 [6:0] $end
$var wire 5 7! ID_W_reg [4:0] $end
$var reg 1 8! EX_instruction_30 $end
$var reg 3 9! EX_instruction_func3 [2:0] $end
$var reg 7 :! EX_instruction_funct7 [6:0] $end
$var reg 5 ;! EX_W_reg [4:0] $end
$upscope $end
$scope module Adder1 $end
$var wire 32 J In1 [31:0] $end
$var wire 32 <! In2 [31:0] $end
$var wire 32 R out [31:0] $end
$upscope $end
$scope module ALU_control $end
$var wire 2 D ALUop [1:0] $end
$var wire 1 N i_30 $end
$var wire 3 O funct3 [2:0] $end
$var wire 7 P funct7 [6:0] $end
$var reg 4 =! ALU_control [3:0] $end
$upscope $end
$scope module ALU_MUX $end
$var wire 32 M in1 [31:0] $end
$var wire 32 L in0 [31:0] $end
$var wire 1 B select $end
$var wire 32 T result [31:0] $end
$upscope $end
$scope module ALU $end
$var wire 4 S ALU_control [3:0] $end
$var wire 32 K R_data1 [31:0] $end
$var wire 32 T R_data2_or_imme [31:0] $end
$var reg 1 >! Zero $end
$var reg 32 ?! Results [31:0] $end
$upscope $end
$scope module EX_MEM_Reg $end
$var wire 1 # clk $end
$var wire 1 > EX_Branch $end
$var wire 1 ? EX_MemRead $end
$var wire 1 @ EX_MemtoReg $end
$var wire 1 A EX_MemWrite $end
$var wire 1 C EX_RegWrite $end
$var reg 1 @! MEM_Branch $end
$var reg 1 A! MEM_MemRead $end
$var reg 1 B! MEM_MemtoReg $end
$var reg 1 C! MEM_MemWrite $end
$var reg 1 D! MEM_RegWrite $end
$var wire 1 E EX_IsJalr $end
$var wire 1 F EX_JumpSrc $end
$var wire 1 G EX_AsByte $end
$var wire 1 H EX_AsUnsigned $end
$var reg 1 E! MEM_IsJalr $end
$var reg 1 F! MEM_JumpSrc $end
$var reg 1 G! MEM_AsByte $end
$var reg 1 H! MEM_AsUnsigned $end
$var wire 32 I EX_PC_4 [31:0] $end
$var wire 32 J EX_PC_cur [31:0] $end
$var reg 32 I! MEM_PC_4 [31:0] $end
$var reg 32 J! MEM_PC_cur [31:0] $end
$var wire 32 R EX_PC_Imme [31:0] $end
$var reg 32 K! MEM_PC_Imme [31:0] $end
$var wire 1 U EX_Zero $end
$var wire 32 V EX_ALU_results [31:0] $end
$var reg 1 L! MEM_Zero $end
$var reg 32 M! MEM_ALU_results [31:0] $end
$var wire 32 L EX_R_data2 [31:0] $end
$var reg 32 N! MEM_R_data2 [31:0] $end
$var wire 5 Q EX_W_reg [4:0] $end
$var reg 5 O! MEM_W_reg [4:0] $end
$upscope $end
$scope module Is_Jalr_MUX $end
$var wire 32 d in1 [31:0] $end
$var wire 32 b in0 [31:0] $end
$var wire 1 \ select $end
$var wire 32 % result [31:0] $end
$upscope $end
$scope module PCSrc_generator $end
$var wire 1 W MEM_Branch $end
$var wire 1 c MEM_Zero $end
$var reg 1 P! MEM_PCSrc $end
$upscope $end
$scope module Data_mem $end
$var wire 1 # clk $end
$var wire 1 Z MemWrite $end
$var wire 32 d Data_mem_addr [31:0] $end
$var wire 32 e Write_data [31:0] $end
$var wire 1 ^ AsByte $end
$var wire 1 _ AsUnsigned $end
$var wire 32 g Read_data [31:0] $end
$var wire 32 Q! signed_value [31:0] $end
$var wire 32 R! unsigned_value [31:0] $end
$var wire 32 S! byte_value [31:0] $end
$var wire 32 T! word_value [31:0] $end
$upscope $end
$scope module MEM_WB_Reg $end
$var wire 1 # clk $end
$var wire 1 Y MEM_MemtoReg $end
$var wire 1 [ MEM_RegWrite $end
$var reg 1 U! WB_MemtoReg $end
$var reg 1 V! WB_RegWrite $end
$var wire 1 ] MEM_JumpSrc $end
$var reg 1 W! WB_JumpSrc $end
$var wire 32 ` MEM_PC_4 [31:0] $end
$var reg 32 X! WB_PC_4 [31:0] $end
$var wire 32 g MEM_Data_mem_data [31:0] $end
$var reg 32 Y! WB_Data_mem_data [31:0] $end
$var wire 32 d MEM_ALU_results [31:0] $end
$var reg 32 Z! WB_ALU_results [31:0] $end
$var wire 5 f MEM_W_reg [4:0] $end
$var reg 5 [! WB_W_reg [4:0] $end
$upscope $end
$scope module MEM_to_Reg_MUX $end
$var wire 32 j in1 [31:0] $end
$var wire 32 k in0 [31:0] $end
$var wire 1 m select $end
$var wire 32 l result [31:0] $end
$upscope $end
$scope module PC_4_MUX $end
$var wire 32 i in1 [31:0] $end
$var wire 32 l in0 [31:0] $end
$var wire 1 h select $end
$var wire 32 9 result [31:0] $end
$upscope $end
$upscope $end
$upscope $end
$enddefinitions $end
#0
$dumpvars
0!
0!!
b1010 "
b0 "!
0#
b0 #!
0$
bx $!
bx %
bz %!
b1 &
0&!
b0 '
0'!
b11001001100000000001010010011 (
0(!
b1 )
0)!
b0 *
0*!
b0 +
0+!
b0 ,
b0 ,!
0-
0-!
0.
0.!
0/
0/!
00
00!
01
b0 1!
02
b0 2!
b0 3
b0 3!
04
b0 4!
05
b0 5!
06
b0 6!
07
b0 7!
bx 8
08!
bx 9
b0 9!
x:
b0 :!
b0 ;
b0 ;!
b0 <
b0 <!
bz =
b1111 =!
0>
1>!
0?
b0 ?!
0@
x@!
0A
xA!
0B
xB!
0C
xC!
b0 D
xD!
0E
xE!
0F
xF!
0G
xG!
0H
xH!
b0 I
bx I!
b0 J
bx J!
b0 K
bx K!
b0 L
xL!
b0 M
bx M!
0N
bx N!
b0 O
bx O!
b0 P
0P!
b0 Q
bx Q!
b0 R
b0xxxxxxxx R!
b1111 S
bx S!
b0 T
bx T!
1U
xU!
b0 V
xV!
xW
xW!
xX
bx X!
xY
bx Y!
xZ
bx Z!
x[
bx [!
x\
x]
x^
x_
bx `
bx a
bx b
xc
bx d
bx e
bx f
bx g
xh
bx i
bx j
bx k
bx l
xm
b0 n
b0 o
b0 p
b0 q
b0 r
0s
0t
0u
b0 v
0w
0x
0y
0z
b0 {
0|
0}
0~
$end
#5000
1!
0!!
b0 "!
1#
b10011 #!
b0 %
b110010011 %!
0&!
0'!
0(!
0)!
b1 *
0*!
0+!
b11001001100000000001010010011 ,
b0 ,!
0-!
0.!
0/!
00!
11
b0 1!
12
b0 2!
b0 3!
b0 4!
bz 5!
b1100 6!
b101 7!
08!
b0 9!
b0 :!
b0 ;!
b0zzzzzzzzzzzzzzzzzzzzzzzzzzzzzzz <!
b110010011 =
0@!
0A!
0B!
0C!
0D!
0E!
0F!
0G!
0H!
b0 I!
b0 J!
b0 K!
1L!
bz M
b0 M!
b0 N!
b0 O!
0P!
bx Q!
bx R
b0xxxxxxxx R!
bx S!
b0 T
bx T!
xU!
xV!
0W
xW!
0X
bx X!
0Y
bx Y!
0Z
bx Z!
0[
bx [!
0\
0]
0^
0_
b0 `
b0 a
b0 b
1c
b0 d
b0 e
b0 f
b1 o
b0 p
b11001001100000000001010010011 q
b10011 r
0s
0t
0u
b0 v
0w
1x
1y
0z
b0 {
0|
0}
0~
#10000
0!
0#
b10 &
b1 '
b10011 (
b10 )
b1 n
#15000
1!
b0 "!
1#
b0 #!
bx %
b0 %!
0&!
0'!
0(!
0)!
b10 *
1*!
b1 +
1+!
b10011 ,
b0 ,!
0-!
0.!
0/!
00!
b1 1!
b0 2!
b0 3!
b0 4!
b110010011 5!
b0 6!
b0 7!
b0 8
08!
b0 9
b0 9!
0:
b1100 :!
b101 ;!
b11001001 <!
b0 =
b1111 =!
1>!
b110010011 ?!
0@!
0A!
1B
0B!
1C
0C!
0D!
0E!
0F!
0G!
0H!
b1 I
b0 I!
b0 J!
bx K!
1L!
b110010011 M
b0 M!
b0 N!
b0 O!
b1100 P
b101 Q
b11001001 R
b110010011 T
0U!
b110010011 V
0V!
0W!
b0 X!
bx Y!
b0 Z!
b0 [!
bx b
0h
b0 i
b0 k
b0 l
0m
b10 o
b1 p
b10011 q
b10011 r
0z
b0 {
#20000
0!
0#
b11 &
b10 '
b11 )
b10 n
#25000
1!
1#
b11001001 %
0&!
0'!
0(!
0)!
b11 *
1*!
b10 +
1+!
b0 ,!
0-!
0.!
0/!
00!
b10 1!
b1 2!
b0 3!
b0 4!
b0 5!
08!
b0 9!
b0 :!
b0 ;!
b0 <!
b1111 =!
1>!
b0 ?!
0@!
0A!
0B!
0C!
1D!
0E!
0F!
0G!
0H!
b10 I
b1 I!
b1 J
b0 J!
b11001001 K!
1L!
b0 M
b110010011 M!
b0 N!
b101 O!
b0 P
b0 Q
bx Q!
b1 R
b0xxxxxxxx R!
b0 T
bx T!
0U!
b0 V
0V!
0W!
b0 X!
bx Y!
b0 Z!
1[
b0 [!
b1 `
b11001001 b
b110010011 d
b101 f
b11 o
b10 p
b10011 q
#30000
0!
0#
b100 &
b11 '
b10100101000001100110011 (
b100 )
b11 n
#35000
1!
0!!
b101 "!
1#
b101 #!
b1 %
bz %!
0&!
0'!
0(!
0)!
b100 *
1*!
b11 +
1+!
b10100101000001100110011 ,
b0 ,!
0-!
0.!
0/!
00!
01
b11 1!
b10 2!
b10 3
b0 3!
b0 4!
b0 5!
b0 6!
b110 7!
b101 8
08!
b110010011 9
b0 9!
1:
b0 :!
b0 ;!
bz =
0@!
0A!
0B!
0C!
1D!
0E!
0F!
0G!
0H!
b11 I
b10 I!
b10 J
b1 J!
b1 K!
1L!
b0 M!
b0 N!
b0 O!
bx Q!
b10 R
b0xxxxxxxx R!
bx T!
0U!
1V!
0W!
b1 X!
bx Y!
b110010011 Z!
b101 [!
b10 `
b1 a
b1 b
b0 d
b0 f
b1 i
b110010011 k
b110010011 l
b100 o
b11 p
b10100101000001100110011 q
b110011 r
0s
0t
0u
b10 v
0w
0x
1y
0z
b0 {
0|
0}
0~
#40000
0!
0#
b101 &
b100 '
b10011 (
b101 )
b110010011 ;
b110010011 <
b100 n
#45000
1!
0!!
b0 "!
1#
b0 #!
b10 %
b0 %!
0&!
0'!
0(!
0)!
b101 *
0*!
b100 +
1+!
b10011 ,
b10 ,!
0-!
0.!
0/!
00!
11
b100 1!
b11 2!
b0 3
b110010011 3!
b110010011 4!
bz 5!
b0 6!
b0 7!
b0 8
08!
b0 9
b0 9!
b0 :!
b0 ;
b110 ;!
b0 <
b0zzzzzzzzzzzzzzzzzzzzzzzzzzzzzzz <!
b0 =
b10 =!
0>!
b1100100110 ?!
0@!
0A!
0B
0B!
0C!
b10 D
1D!
0E!
0F!
0G!
0H!
b100 I
b11 I!
b11 J
b10 J!
b110010011 K
b10 K!
b110010011 L
1L!
bz M
b0 M!
b0 N!
b0 O!
b110 Q
bx R
b10 S
b110010011 T
0U
0U!
b1100100110 V
1V!
0W!
b10 X!
bx Y!
b0 Z!
b0 [!
b11 `
b10 a
b10 b
b10 i
b0 k
b0 l
b101 o
b100 p
b10011 q
b10011 r
0s
0t
0u
b0 v
0w
1x
1y
0z
b0 {
0|
0}
0~
#50000
0!
0#
b110 &
b101 '
b110 )
b101 n
#55000
1!
1#
bx %
0&!
0'!
0(!
0)!
b110 *
1*!
b101 +
1+!
b0 ,!
0-!
0.!
0/!
00!
b101 1!
b100 2!
b0 3!
b0 4!
b0 5!
08!
b0 9!
b0 :!
b0 ;!
b0 <!
b1111 =!
1>!
b0 ?!
0@!
0A!
1B
0B!
0C!
b0 D
1D!
0E!
0F!
0G!
0H!
b101 I
b100 I!
b100 J
b11 J!
b0 K
bx K!
b0 L
0L!
b0 M
b1100100110 M!
b110010011 N!
b110 O!
0P!
b0 Q
bx Q!
b100 R
b0xxxxxxxx R!
b1111 S
b0 T
bx T!
1U
0U!
b0 V
1V!
0W!
b11 X!
bx Y!
b0 Z!
b0 [!
b100 `
b11 a
bx b
0c
b1100100110 d
b110010011 e
b110 f
b11 i
b110 o
b101 p
b10011 q
#60000
0!
0#
b111 &
b110 '
b1000000011000000000001110110011 (
b111 )
b110 n
#65000
1!
0!!
b0 "!
1#
b110 #!
b100 %
bz %!
0&!
0'!
0(!
0)!
b111 *
1*!
b110 +
1+!
b1000000011000000000001110110011 ,
b0 ,!
0-!
0.!
0/!
00!
01
b110 1!
b101 2!
b10 3
b0 3!
b0 4!
b0 5!
b100000 6!
b111 7!
b110 8
08!
b1100100110 9
b0 9!
b0 :!
b0 ;!
bz =
0@!
0A!
0B!
0C!
1D!
0E!
0F!
0G!
0H!
b110 I
b101 I!
b101 J
b100 J!
b100 K!
1L!
b0 M!
b0 N!
b0 O!
0P!
bx Q!
b101 R
b0xxxxxxxx R!
bx T!
0U!
1V!
0W!
b100 X!
bx Y!
b1100100110 Z!
b110 [!
b101 `
b100 a
b100 b
1c
b0 d
b0 e
b0 f
b100 i
b1100100110 k
b1100100110 l
b111 o
b110 p
b1000000011000000000001110110011 q
b110011 r
0s
0t
0u
b10 v
0w
0x
1y
1z
b0 {
0|
0}
0~
#70000
0!
0#
b1000 &
b111 '
b11000101111111000110011 (
b1000 )
b1100100110 <
b111 n
#75000
1!
0!!
b101 "!
1#
b110 #!
b101 %
bz %!
0&!
0'!
0(!
0)!
b1000 *
0*!
b111 +
1+!
b11000101111111000110011 ,
b10 ,!
0-!
0.!
0/!
00!
b111 1!
b110 2!
b0 3!
b1100100110 4!
bz 5!
b0 6!
b11100 7!
b0 8
18!
b0 9
b0 9!
b100000 :!
b110010011 ;
b111 ;!
b0zzzzzzzzzzzzzzzzzzzzzzzzzzzzzzz <!
b110 =!
0>!
b11111111111111111111110011011010 ?!
0@!
0A!
0B
0B!
0C!
b10 D
1D!
0E!
0F!
0G!
0H!
b111 I
b110 I!
b110 J
b101 J!
b101 K!
b1100100110 L
1L!
bz M
b0 M!
1N
b0 N!
b0 O!
b100000 P
b111 Q
bx R
b110 S
b1100100110 T
0U
0U!
b11111111111111111111110011011010 V
1V!
0W!
b101 X!
bx Y!
b0 Z!
b0 [!
b110 `
b101 a
b101 b
b101 i
b0 k
b0 l
b1000 o
b111 p
b11000101111111000110011 q
b110011 r
0z
b111 {
0|
0}
0~
#80000
0!
0#
b1001 &
b1000 '
b1000000000111000010011 (
b1001 )
b1000 n
#85000
1!
0!!
b0 "!
1#
b10 #!
bx %
b10 %!
0&!
0'!
0(!
0)!
b1001 *
0*!
b1000 +
1+!
b1000000000111000010011 ,
b10 ,!
0-!
0.!
0/!
00!
11
b1000 1!
b111 2!
b0 3
b110010011 3!
b1100100110 4!
bz 5!
b0 6!
b11100 7!
08!
b111 9!
b0 :!
b0 ;
b11100 ;!
b0 <
b10 =
b0 =!
0>!
b100000010 ?!
0@!
0A!
0B!
0C!
1D!
0E!
0F!
0G!
0H!
b1000 I
b111 I!
b111 J
b110 J!
b110010011 K
bx K!
0L!
b11111111111111111111110011011010 M!
0N
b1100100110 N!
b111 O
b111 O!
b0 P
0P!
b11100 Q
bx Q!
b0xxxxxxxx R!
b0 S
bx T!
0U!
b100000010 V
1V!
0W!
b110 X!
bx Y!
b0 Z!
b0 [!
b111 `
b110 a
bx b
0c
b11111111111111111111110011011010 d
b1100100110 e
b111 f
b110 i
b1001 o
b1000 p
b1000000000111000010011 q
b10011 r
0s
0t
0u
b0 v
0w
1x
1y
0z
b0 {
0|
0}
0~
#90000
0!
0#
b1010 &
b1001 '
b10011 (
b1010 )
b1001 n
#95000
1!
b0 "!
1#
b0 #!
bx %
b0 %!
0&!
0'!
0(!
0)!
b1010 *
1*!
b1001 +
1+!
b10011 ,
b0 ,!
0-!
0.!
0/!
00!
b1001 1!
b1000 2!
b0 3!
b0 4!
b10 5!
b0 6!
b0 7!
b111 8
08!
b11111111111111111111110011011010 9
b0 9!
b0 :!
b11100 ;!
b1 <!
b0 =
b1111 =!
1>!
b10 ?!
0@!
0A!
1B
0B!
0C!
b0 D
1D!
0E!
0F!
0G!
0H!
b1001 I
b1000 I!
b1000 J
b111 J!
b0 K
bx K!
b0 L
0L!
b10 M
b100000010 M!
b1100100110 N!
b0 O
b11100 O!
bx Q!
b1001 R
b0xxxxxxxx R!
b1111 S
b10 T
bx T!
1U
0U!
b10 V
1V!
0W!
b111 X!
bx Y!
b11111111111111111111110011011010 Z!
b111 [!
b1000 `
b111 a
b100000010 d
b11100 f
b111 i
b11111111111111111111110011011010 k
b11111111111111111111110011011010 l
b1010 o
b1001 p
b10011 q
b10011 r
0z
b0 {
#100000
0!
0#
b1011 &
b1010 '
b1011 )
b1010 n
#105000
1!
1#
b1001 %
0&!
0'!
0(!
0)!
b1011 *
1*!
b1010 +
1+!
b0 ,!
0-!
0.!
0/!
00!
b1010 1!
b1001 2!
b0 3!
b0 4!
b0 5!
b11100 8
08!
b100000010 9
b0 9!
b0 :!
b0 ;!
b0 <!
1>!
b0 ?!
0@!
0A!
0B!
0C!
1D!
0E!
0F!
0G!
0H!
b1010 I
b1001 I!
b1001 J
b1000 J!
b1001 K!
1L!
b0 M
b10 M!
b0 N!
b11100 O!
0P!
b0 Q
bx Q!
b0xxxxxxxx R!
b0 T
bx T!
0U!
b0 V
1V!
0W!
b1000 X!
bx Y!
b100000010 Z!
b11100 [!
b1001 `
b1000 a
b1001 b
1c
b10 d
b0 e
b1000 i
b100000010 k
b100000010 l
b1011 o
b1010 p
b10011 q
#110000
0!
0#
b1100 &
b1011 '
b1110000110001001100110011 (
b1100 )
b1011 n
#115000
1!
0!!
b110 "!
1#
b11100 #!
b1001 %
bz %!
0&!
0'!
0(!
0)!
b1100 *
1*!
b1011 +
1+!
b1110000110001001100110011 ,
b0 ,!
0-!
0.!
0/!
00!
01
b1011 1!
b1010 2!
b10 3
b0 3!
b0 4!
b0 5!
b0 6!
b110 7!
08!
b10 9
b0 9!
b0 :!
b1100100110 ;
b0 ;!
b100000010 <
bz =
0@!
0A!
0B!
0C!
1D!
0E!
0F!
0G!
0H!
b1011 I
b1010 I!
b1010 J
b1001 J!
b1001 K!
1L!
b0 M!
b0 N!
b0 O!
bx Q!
b1010 R
b0xxxxxxxx R!
bx T!
0U!
1V!
0W!
b1001 X!
bx Y!
b10 Z!
b11100 [!
b1010 `
b1001 a
b0 d
b0 f
b1001 i
b10 k
b10 l
b1100 o
b1011 p
b1110000110001001100110011 q
b110011 r
0s
0t
0u
b10 v
0w
0x
1y
0z
b1 {
0|
0}
0~
#120000
0!
0#
b1101 &
b1100 '
b10011 (
b1101 )
b10 <
b1100 n
#125000
1!
0!!
b0 "!
1#
b0 #!
b1010 %
b0 %!
0&!
0'!
0(!
0)!
b1101 *
0*!
b1100 +
1+!
b10011 ,
b10 ,!
0-!
0.!
0/!
00!
11
b1100 1!
b1011 2!
b0 3
b1100100110 3!
b10 4!
bz 5!
b0 6!
b0 7!
b0 8
08!
b0 9
b1 9!
b0 :!
b0 ;
b110 ;!
b0 <
b0zzzzzzzzzzzzzzzzzzzzzzzzzzzzzzz <!
b0 =
b11 =!
0>!
b110010011000 ?!
0@!
0A!
0B
0B!
0C!
b10 D
1D!
0E!
0F!
0G!
0H!
b1100 I
b1011 I!
b1011 J
b1010 J!
b1100100110 K
b1010 K!
b10 L
1L!
bz M
b0 M!
b0 N!
b1 O
b0 O!
b110 Q
bx R
b11 S
b10 T
0U
0U!
b110010011000 V
1V!
0W!
b1010 X!
bx Y!
b0 Z!
b0 [!
b1011 `
b1010 a
b1010 b
b1010 i
b0 k
b0 l
b1101 o
b1100 p
b10011 q
b10011 r
0s
0t
0u
b0 v
0w
1x
1y
0z
b0 {
0|
0}
0~
#130000
0!
0#
b1110 &
b1101 '
b1110 )
b1101 n
#135000
1!
1#
bx %
0&!
0'!
0(!
0)!
b1110 *
1*!
b1101 +
1+!
b0 ,!
0-!
0.!
0/!
00!
b1101 1!
b1100 2!
b0 3!
b0 4!
b0 5!
08!
b0 9!
b0 :!
b0 ;!
b0 <!
b1111 =!
1>!
b0 ?!
0@!
0A!
1B
0B!
0C!
b0 D
1D!
0E!
0F!
0G!
0H!
b1101 I
b1100 I!
b1100 J
b1011 J!
b0 K
bx K!
b0 L
0L!
b0 M
b110010011000 M!
b10 N!
b0 O
b110 O!
0P!
b0 Q
bx Q!
b1100 R
b0xxxxxxxx R!
b1111 S
b0 T
bx T!
1U
0U!
b0 V
1V!
0W!
b1011 X!
bx Y!
b0 Z!
b0 [!
b1100 `
b1011 a
bx b
0c
b110010011000 d
b10 e
b110 f
b1011 i
b1110 o
b1101 p
b10011 q
#140000
0!
0#
b1111 &
b1110 '
b11000111110001110110011 (
b1111 )
b1110 n
#145000
1!
0!!
b111 "!
1#
b110 #!
b1100 %
bz %!
0&!
0'!
0(!
0)!
b1111 *
1*!
b1110 +
1+!
b11000111110001110110011 ,
b0 ,!
0-!
0.!
0/!
00!
01
b1110 1!
b1101 2!
b10 3
b0 3!
b0 4!
b0 5!
b0 6!
b111 7!
b110 8
08!
b110010011000 9
b0 9!
b0 :!
b11111111111111111111110011011010 ;
b0 ;!
b1100100110 <
bz =
0@!
0A!
0B!
0C!
1D!
0E!
0F!
0G!
0H!
b1110 I
b1101 I!
b1101 J
b1100 J!
b1100 K!
1L!
b0 M!
b0 N!
b0 O!
0P!
bx Q!
b1101 R
b0xxxxxxxx R!
bx T!
0U!
1V!
0W!
b1100 X!
bx Y!
b110010011000 Z!
b110 [!
b1101 `
b1100 a
b1100 b
1c
b0 d
b0 e
b0 f
b1100 i
b110010011000 k
b110010011000 l
b1111 o
b1110 p
b11000111110001110110011 q
b110011 r
0s
0t
0u
b10 v
0w
0x
1y
0z
b110 {
0|
0}
0~
#150000
0!
0#
b10000 &
b1111 '
b10011 (
b10000 )
b110010011000 <
b1111 n
#155000
1!
0!!
b0 "!
1#
b0 #!
b1101 %
b0 %!
0&!
0'!
0(!
0)!
b10000 *
0*!
b1111 +
1+!
b10011 ,
b10 ,!
0-!
0.!
0/!
00!
11
b1111 1!
b1110 2!
b0 3
b11111111111111111111110011011010 3!
b110010011000 4!
bz 5!
b0 6!
b0 7!
b0 8
08!
b0 9
b110 9!
b0 :!
b0 ;
b111 ;!
b0 <
b0zzzzzzzzzzzzzzzzzzzzzzzzzzzzzzz <!
b0 =
b1 =!
0>!
b11111111111111111111110011011010 ?!
0@!
0A!
0B
0B!
0C!
b10 D
1D!
0E!
0F!
0G!
0H!
b1111 I
b1110 I!
b1110 J
b1101 J!
b11111111111111111111110011011010 K
b1101 K!
b110010011000 L
1L!
bz M
b0 M!
b0 N!
b110 O
b0 O!
b111 Q
bx R
b1 S
b110010011000 T
0U
0U!
b11111111111111111111110011011010 V
1V!
0W!
b1101 X!
bx Y!
b0 Z!
b0 [!
b1110 `
b1101 a
b1101 b
b1101 i
b0 k
b0 l
b10000 o
b1111 p
b10011 q
b10011 r
0s
0t
0u
b0 v
0w
1x
1y
0z
b0 {
0|
0}
0~
#160000
0!
0#
b10001 &
b10000 '
b10001 )
b10000 n
